[
    {
        "name": "КП-225193 - Книга Свободіна В. / «Обраниця тирана» (рос.)",
        "state": "Новая",
        "operation": "Печать ролевая",
        "age": 20
    },
    {
        "name": "КП-223615 - Газета «Ваш шанс» № 6",
        "state": "В работе",
        "operation": "Печать ролевая",
        "age": 36
    }
]
