[
    {
      "id": 1,
      "firstName": "demo",
      "lastName": "demo",
      "username": "demo",
      "email": "demo@gmail.com",
      "age": "28"
    },
    {
      "id": 2,
      "firstName": "Владимир",
      "lastName": "Алексеев",
      "username": "v.alekseev",
      "email": "v.alekseev@druk.factor.ua",
      "age": "45"
    }
  ]